
     Program CP v.6.7GPU starts on 14Jul2021 at 13: 7:27 

     This program is part of the open-source Quantum ESPRESSO suite
     for quantum simulation of materials; please cite
         "P. Giannozzi et al., J. Phys.:Condens. Matter 21 395502 (2009);
         "P. Giannozzi et al., J. Phys.:Condens. Matter 29 465901 (2017);
         "P. Giannozzi et al., J. Chem. Phys. 152 154105 (2020);
          URL http://www.quantum-espresso.org", 
     in publications or presentations arising from this work. More details at
     http://www.quantum-espresso.org/quote

     Parallel version (MPI & OpenMP), running on       2 processor cores
     Number of MPI processes:                 2
     Threads/MPI process:                     1

     MPI processes distributed on     2 nodes
     R & G space division:  proc/nbgrp/npool/nimage =       2
     265808 MiB available memory on the printing compute node when the environment starts
 
     Reading input from h2o.in
Warning: card &CELL ignored
Warning: card   CELL_DYNAMICS = 'NONE', ignored
Warning: card   CELL_VELOCITIES = 'ZERO', ignored
Warning: card   PRESS = 0.0D0, ignored
Warning: card   WMASS = 70000.0D0 ignored
Warning: card / ignored

   Job Title:  Water 64 molecules


   Atomic Pseudopotentials Parameters
   ----------------------------------

   Reading pseudopotential for specie #  1 from file :
   ./O.BLYP.UPF
   file type is UPF v.1

   Reading pseudopotential for specie #  2 from file :
   ./H.fpmd.UPF
   file type is UPF v.1
     file O.BLYP.UPF: wavefunction(s)  2S 2P renormalized
     WARNING: atomic wfc #  1 for atom typeH has zero norm


   Main Simulation Parameters (from input)
   ---------------------------------------
   Restart Mode       =      -1   from_scratch   
   Number of MD Steps =      10
   Print out every           10 MD Steps
   Reads from unit    =      50
   Writes to unit     =      50
   MD Simulation time step            =       5.00
   Electronic fictitious mass (emass) =     400.00
   emass cut-off                      =       2.50

   Simulation Cell Parameters (from input)
   external pressure       =            0.00 [KBar]
   wmass (calculated)      =       159718.47 [AU]
   ibrav =   14
   alat  =    18.65000000
   a1    =    18.65000000    0.00000000    0.00000000
   a2    =     0.00000000   18.65000000    0.00000000
   a3    =     0.00000000    0.00000000   37.30000000
 
   b1    =     0.05361930    0.00000000    0.00000000
   b2    =     0.00000000    0.05361930    0.00000000
   b3    =     0.00000000    0.00000000    0.02680965
   omega =   12973.77925000

   Energy Cut-offs
   ---------------
   Ecutwfc =   80.0 Ry,      Ecutrho =  320.0 Ry,      Ecuts =  320.0 Ry
   Gcutwfc =   26.5     ,    Gcutrho =   53.1          Gcuts =   53.1
   modified kinetic energy functional, with parameters:
   ecutz =  70.0000  ecsig =  5.0000  ecfix =  70.00
   NOTA BENE: refg, mmx =   0.050000  7680
   Eigenvalues calculated without the kinetic term contribution
   Orthog. with lagrange multipliers : eps =   0.50E-07,  max = 100
   verlet algorithm for electron dynamics
   with friction frice =  0.2000 , grease =  1.0000
   Electron dynamics : the temperature is not controlled
   initial random displacement of el. coordinates with  amplitude=  0.020000

   Electronic states
   -----------------
   Number of Electrons=   512, of States =   256
   Occupation numbers :
   2.00 2.00 2.00 2.00 2.00 2.00 2.00 2.00 2.00 2.00
   2.00 2.00 2.00 2.00 2.00 2.00 2.00 2.00 2.00 2.00
   2.00 2.00 2.00 2.00 2.00 2.00 2.00 2.00 2.00 2.00
   2.00 2.00 2.00 2.00 2.00 2.00 2.00 2.00 2.00 2.00
   2.00 2.00 2.00 2.00 2.00 2.00 2.00 2.00 2.00 2.00
   2.00 2.00 2.00 2.00 2.00 2.00 2.00 2.00 2.00 2.00
   2.00 2.00 2.00 2.00 2.00 2.00 2.00 2.00 2.00 2.00
   2.00 2.00 2.00 2.00 2.00 2.00 2.00 2.00 2.00 2.00
   2.00 2.00 2.00 2.00 2.00 2.00 2.00 2.00 2.00 2.00
   2.00 2.00 2.00 2.00 2.00 2.00 2.00 2.00 2.00 2.00
   2.00 2.00 2.00 2.00 2.00 2.00 2.00 2.00 2.00 2.00
   2.00 2.00 2.00 2.00 2.00 2.00 2.00 2.00 2.00 2.00
   2.00 2.00 2.00 2.00 2.00 2.00 2.00 2.00 2.00 2.00
   2.00 2.00 2.00 2.00 2.00 2.00 2.00 2.00 2.00 2.00
   2.00 2.00 2.00 2.00 2.00 2.00 2.00 2.00 2.00 2.00
   2.00 2.00 2.00 2.00 2.00 2.00 2.00 2.00 2.00 2.00
   2.00 2.00 2.00 2.00 2.00 2.00 2.00 2.00 2.00 2.00
   2.00 2.00 2.00 2.00 2.00 2.00 2.00 2.00 2.00 2.00
   2.00 2.00 2.00 2.00 2.00 2.00 2.00 2.00 2.00 2.00
   2.00 2.00 2.00 2.00 2.00 2.00 2.00 2.00 2.00 2.00
   2.00 2.00 2.00 2.00 2.00 2.00 2.00 2.00 2.00 2.00
   2.00 2.00 2.00 2.00 2.00 2.00 2.00 2.00 2.00 2.00
   2.00 2.00 2.00 2.00 2.00 2.00 2.00 2.00 2.00 2.00
   2.00 2.00 2.00 2.00 2.00 2.00 2.00 2.00 2.00 2.00
   2.00 2.00 2.00 2.00 2.00 2.00 2.00 2.00 2.00 2.00
   2.00 2.00 2.00 2.00 2.00 2.00


   Exchange and correlations functionals
   -------------------------------------
     Exchange-correlation=     BLYP
                           (   0   3   0   3   0   0   0)


   Ions Simulation Parameters
   --------------------------
   Ions are not allowed to move
   Ionic position (from input)
   sorted by specie, and converted to real a.u. coordinates
   Species   1 atoms =   64 mass =     29166.22 (a.u.),        16.00 (amu) rcmax =   0.80 (a.u.)
        6.232830     7.195170     3.174230
       12.460065     1.439780     1.857540
        9.127310     5.132480    18.023360
       15.617510     0.307725    16.568660
        7.765860     2.622190    10.022510
       17.158000     5.121290    13.950200
       17.340770    12.605535     1.018290
        9.692405    10.766645     4.606550
       15.764845     4.304420     4.718450
       13.204200     8.414880     2.055230
       11.743905    12.568235     8.761770
       12.847985     8.258220    15.106500
       17.294145    16.522035     5.125020
       13.539900    17.851780     8.418610
       17.790235    11.743905    11.756960
        1.182410     7.827405     4.972090
        0.164120     2.627785     9.459280
       14.998330     8.159375     9.216830
       13.019565     3.530445    10.880410
        5.423420     9.694270     9.761410
        3.422275     7.405915    14.561920
        4.569250     3.774760     6.479010
        5.710630     2.935510    14.908810
        8.327225    15.645485     4.028400
        3.601315    10.701370     0.089520
        3.504335    18.025225     3.543500
        1.633740    12.433955     7.616660
        4.918005    13.942740    14.696200
        9.703595    11.803585    13.454110
        6.926610    16.342995     9.138500
       14.761475    15.460850    13.155710
        2.678140    18.461635    17.337040
        6.232830     7.195170    21.824230
       12.460065     1.439780    20.507540
        9.127310     5.132480    36.673360
       15.617510     0.307725    35.218660
        7.765860     2.622190    28.672510
       17.158000     5.121290    32.600200
       17.340770    12.605535    19.668290
        9.692405    10.766645    23.256550
       15.764845     4.304420    23.368450
       13.204200     8.414880    20.705230
       11.743905    12.568235    27.411770
       12.847985     8.258220    33.756500
       17.294145    16.522035    23.775020
       13.539900    17.851780    27.068610
       17.790235    11.743905    30.406960
        1.182410     7.827405    23.622090
        0.164120     2.627785    28.109280
       14.998330     8.159375    27.866830
       13.019565     3.530445    29.530410
        5.423420     9.694270    28.411410
        3.422275     7.405915    33.211920
        4.569250     3.774760    25.129010
        5.710630     2.935510    33.558810
        8.327225    15.645485    22.678400
        3.601315    10.701370    18.739520
        3.504335    18.025225    22.193500
        1.633740    12.433955    26.266660
        4.918005    13.942740    33.346200
        9.703595    11.803585    32.104110
        6.926610    16.342995    27.788500
       14.761475    15.460850    31.805710
        2.678140    18.461635    35.987040
   Species   2 atoms =  128 mass =      1837.29 (a.u.),         1.01 (amu) rcmax =   0.50 (a.u.)
        6.978830     6.266400     1.730720
        5.874750     6.016490     4.610280
       17.540325     3.364460     8.422340
       11.305630     0.160390     2.558780
       13.485815     0.660210     0.492360
       10.182900     3.733730    18.433660
       10.261230     6.096685    16.840950
       15.921505     1.956385    15.815200
        7.928115     0.805680     9.716650
        6.941530     2.877695    11.701010
       13.131465     0.906390     9.157150
       17.489970     4.086215    12.346300
       16.939795    13.687235     2.450610
       11.078100    10.076595     3.577070
        8.230245     9.586100     4.296960
       14.873375     3.026895     3.614370
       17.439615     4.643850     4.047050
       13.978175     7.075810     3.289860
       14.489185     9.811765     1.768020
       13.506330    12.100120     8.418610
       10.839380    11.480940     7.519680
       14.192650     7.443215    14.147890
       13.526845     8.483885    16.807380
       18.286325    15.140070     5.889670
       16.363510    17.221410     6.542420
       15.416090    17.590680    15.266890
       12.008735    16.885710     8.687170
       16.969635    13.207930    12.570100
        2.137290     6.480875     5.837450
        2.195105     8.564080     3.610640
        1.835160     3.476360     9.213100
       16.285180     9.144095    10.130680
       15.789090     7.547655     7.653960
       11.158295     3.448385    10.738670
       13.530575     5.345090    10.477570
        4.602820    11.208650     9.228020
        6.816575    10.279880    10.753590
        4.136570     8.351470    13.025160
        4.237280     5.645355    14.427640
        0.165985     5.915780    14.453750
        5.979190     3.274940     7.694990
        4.304420     2.331250     5.222000
        4.513300     1.915355    15.945750
        6.997480     3.660995    16.229230
        6.484605    15.962535     3.543500
        8.836370    13.834570     3.920230
        0.553905    12.357490     1.126460
        4.975820     9.996400     1.119000
        3.153715    18.431795     1.786670
        1.775480    17.489970     4.173870
        0.300265    12.100120     8.892320
        1.753100    10.703235     6.956450
        5.087720    13.045675    16.341130
        6.622615    13.948335    14.021070
       10.839380    10.399240    14.136700
       10.453325    12.340705    11.842750
        3.246965     9.584235    17.314660
        5.643490    15.028170     9.481660
        7.584955    15.988645     7.348100
       13.129600    14.854725    13.737590
       14.390340    16.053920    11.372770
        0.276020    11.270195    13.174360
        3.420410    16.993880    16.154630
        0.917580    18.452310    17.169190
        6.978830     6.266400    20.380720
        5.874750     6.016490    23.260280
       17.540325     3.364460    27.072340
       11.305630     0.160390    21.208780
       13.485815     0.660210    19.142360
       10.182900     3.733730    37.083660
       10.261230     6.096685    35.490950
       15.921505     1.956385    34.465200
        7.928115     0.805680    28.366650
        6.941530     2.877695    30.351010
       13.131465     0.906390    27.807150
       17.489970     4.086215    30.996300
       16.939795    13.687235    21.100610
       11.078100    10.076595    22.227070
        8.230245     9.586100    22.946960
       14.873375     3.026895    22.264370
       17.439615     4.643850    22.697050
       13.978175     7.075810    21.939860
       14.489185     9.811765    20.418020
       13.506330    12.100120    27.068610
       10.839380    11.480940    26.169680
       14.192650     7.443215    32.797890
       13.526845     8.483885    35.457380
       18.286325    15.140070    24.539670
       16.363510    17.221410    25.192420
       15.416090    17.590680    33.916890
       12.008735    16.885710    27.337170
       16.969635    13.207930    31.220100
        2.137290     6.480875    24.487450
        2.195105     8.564080    22.260640
        1.835160     3.476360    27.863100
       16.285180     9.144095    28.780680
       15.789090     7.547655    26.303960
       11.158295     3.448385    29.388670
       13.530575     5.345090    29.127570
        4.602820    11.208650    27.878020
        6.816575    10.279880    29.403590
        4.136570     8.351470    31.675160
        4.237280     5.645355    33.077640
        0.165985     5.915780    33.103750
        5.979190     3.274940    26.344990
        4.304420     2.331250    23.872000
        4.513300     1.915355    34.595750
        6.997480     3.660995    34.879230
        6.484605    15.962535    22.193500
        8.836370    13.834570    22.570230
        0.553905    12.357490    19.776460
        4.975820     9.996400    19.769000
        3.153715    18.431795    20.436670
        1.775480    17.489970    22.823870
        0.300265    12.100120    27.542320
        1.753100    10.703235    25.606450
        5.087720    13.045675    34.991130
        6.622615    13.948335    32.671070
       10.839380    10.399240    32.786700
       10.453325    12.340705    30.492750
        3.246965     9.584235    35.964660
        5.643490    15.028170    28.131660
        7.584955    15.988645    25.998100
       13.129600    14.854725    32.387590
       14.390340    16.053920    30.022770
        0.276020    11.270195    31.824360
        3.420410    16.993880    34.804630
        0.917580    18.452310    35.819190
   Ionic position read from input file


   Cell Dynamics Parameters (from STDIN)
   -------------------------------------
   internal stress tensor calculated
   Starting cell generated from CELLDM
   Constant VOLUME Molecular dynamics
   cell parameters are not allowed to move

   Verbosity: iverbosity =  0



   Simulation dimensions initialization
   ------------------------------------

   unit vectors of full simulation cell
   in real space:                         in reciprocal space (units 2pi/alat):
   1    18.6500    0.0000    0.0000              1.0000    0.0000    0.0000
   2     0.0000   18.6500    0.0000              0.0000    1.0000    0.0000
   3     0.0000    0.0000   37.3000              0.0000    0.0000    0.5000
 
     Parallelization info
     --------------------
     sticks:   dense  smooth     PW     G-vecs:    dense   smooth      PW
     Min        4427    4427   1108               627015   627015   78320
     Max        4430    4430   1109               627022   627022   78331
     Sum        8857    8857   2217              1254037  1254037  156651
 
     Using Slab Decomposition
 
 
   Real Mesh
   ---------
   Global Dimensions   Local  Dimensions   Processor Grid
   .X.   .Y.   .Z.     .X.   .Y.   .Z.     .X.   .Y.   .Z.
   108   108   216     108   108   108       1     1     2
   Array leading dimensions ( nr1x, nr2x, nr3x )   =    108   108   216
   Local number of cell to store the grid ( nrxx ) =    1259712
   Number of x-y planes for each processors: 
  | 108, 108  | 108, 108  |
   Using Slab Decomposition
 
   Smooth Real Mesh
   ----------------
   Global Dimensions   Local  Dimensions   Processor Grid
   .X.   .Y.   .Z.     .X.   .Y.   .Z.     .X.   .Y.   .Z.
   108   108   216     108   108   108       1     1     2
   Array leading dimensions ( nr1x, nr2x, nr3x )   =    108   108   216
   Local number of cell to store the grid ( nrxx ) =    1259712
   Number of x-y planes for each processors: 
  | 108, 108  | 108, 108  |
   Using Slab Decomposition
 
   Small Box Real Mesh
   -------------------
   Global Dimensions   Local  Dimensions   Processor Grid
   .X.   .Y.   .Z.     .X.   .Y.   .Z.     .X.   .Y.   .Z.
    10    10    10      10    10    10       1     1     1
   Array leading dimensions ( nr1x, nr2x, nr3x )   =     10    10    10
   Local number of cell to store the grid ( nrxx ) =       1000
 
   unit vectors of box grid cell
   in real space:                         in reciprocal space:
       1.7269    0.0000    0.0000              1.0000    0.0000    0.0000
       0.0000    1.7269    0.0000              0.0000    1.0000    0.0000
       0.0000    0.0000    1.7269              0.0000    0.0000    1.0000
 
   Reciprocal Space Mesh
   ---------------------
   Large Mesh
     Global(ngm_g)    MinLocal       MaxLocal      Average
         627019         313508         313511      313509.50
   Smooth Mesh
     Global(ngms_g)   MinLocal       MaxLocal      Average
         627019         313508         313511      313509.50
   Wave function Mesh
     Global(ngw_g)    MinLocal       MaxLocal      Average
          78326          39160          39166       39163.00

   Small box Mesh
   ngb =          243 not distributed to processors


   System geometry initialization
   ------------------------------
   ibrav =   14       cell parameters read from input file
 
   unit vectors of box grid cell
   in real space:                         in reciprocal space:
       1.7269    0.0000    0.0000              1.0000    0.0000    0.0000
       0.0000    1.7269    0.0000              0.0000    1.0000    0.0000
       0.0000    0.0000    1.7269              0.0000    0.0000    1.0000

     Subspace diagonalization in iterative solution of the eigenvalue problem:
     a serial algorithm will be used


   Matrix Multiplication Performances
   ortho mmul, time for parallel driver      =   0.00152 with    1 procs

   Constraints matrixes will be distributed block like on
   ortho sub-group =    1*   1 procs



   Pseudopotentials initialization
   -------------------------------


   Common initialization

   Specie:     1
   1  indv=  1   ang. mom=  0
 
                        dion 
   3.2390

   Specie:     2
 
                        dion 

   Cell parameters from input file are used in electron mass preconditioning
   init_tpiba2=    0.11350162
 
   Short Legend and Physical Units in the Output
   ---------------------------------------------
   NFI    [int]          - step index
   EKINC  [HARTREE A.U.] - kinetic energy of the fictitious electronic dynamics
   TEMPH  [K]            - Temperature of the fictitious cell dynamics
   TEMP   [K]            - Ionic temperature
   ETOT   [HARTREE A.U.] - Scf total energy (Kohn-Sham hamiltonian)
   ENTHAL [HARTREE A.U.] - Enthalpy ( ETOT + P * V )
   ECONS  [HARTREE A.U.] - Enthalpy + kinetic energy of ions and cell
   ECONT  [HARTREE A.U.] - Constant of motion for the CP lagrangian
 


   Wave Initialization: random initial wave-functions
   Occupation number from init
   nbnd =   256
    2.00 2.00 2.00 2.00 2.00 2.00 2.00 2.00 2.00 2.00
    2.00 2.00 2.00 2.00 2.00 2.00 2.00 2.00 2.00 2.00
    2.00 2.00 2.00 2.00 2.00 2.00 2.00 2.00 2.00 2.00
    2.00 2.00 2.00 2.00 2.00 2.00 2.00 2.00 2.00 2.00
    2.00 2.00 2.00 2.00 2.00 2.00 2.00 2.00 2.00 2.00
    2.00 2.00 2.00 2.00 2.00 2.00 2.00 2.00 2.00 2.00
    2.00 2.00 2.00 2.00 2.00 2.00 2.00 2.00 2.00 2.00
    2.00 2.00 2.00 2.00 2.00 2.00 2.00 2.00 2.00 2.00
    2.00 2.00 2.00 2.00 2.00 2.00 2.00 2.00 2.00 2.00
    2.00 2.00 2.00 2.00 2.00 2.00 2.00 2.00 2.00 2.00
    2.00 2.00 2.00 2.00 2.00 2.00 2.00 2.00 2.00 2.00
    2.00 2.00 2.00 2.00 2.00 2.00 2.00 2.00 2.00 2.00
    2.00 2.00 2.00 2.00 2.00 2.00 2.00 2.00 2.00 2.00
    2.00 2.00 2.00 2.00 2.00 2.00 2.00 2.00 2.00 2.00
    2.00 2.00 2.00 2.00 2.00 2.00 2.00 2.00 2.00 2.00
    2.00 2.00 2.00 2.00 2.00 2.00 2.00 2.00 2.00 2.00
    2.00 2.00 2.00 2.00 2.00 2.00 2.00 2.00 2.00 2.00
    2.00 2.00 2.00 2.00 2.00 2.00 2.00 2.00 2.00 2.00
    2.00 2.00 2.00 2.00 2.00 2.00 2.00 2.00 2.00 2.00
    2.00 2.00 2.00 2.00 2.00 2.00 2.00 2.00 2.00 2.00
    2.00 2.00 2.00 2.00 2.00 2.00 2.00 2.00 2.00 2.00
    2.00 2.00 2.00 2.00 2.00 2.00 2.00 2.00 2.00 2.00
    2.00 2.00 2.00 2.00 2.00 2.00 2.00 2.00 2.00 2.00
    2.00 2.00 2.00 2.00 2.00 2.00 2.00 2.00 2.00 2.00
    2.00 2.00 2.00 2.00 2.00 2.00 2.00 2.00 2.00 2.00
    2.00 2.00 2.00 2.00 2.00 2.00

   formf: eself=  1251.08299
   formf:     vps(g=0)=  -0.0008817     rhops(g=0)=  -0.0004625
   formf:     vps(g=0)=  -0.0008797     rhops(g=0)=  -0.0004604
   formf:     vps(g=0)=  -0.0008735     rhops(g=0)=  -0.0004541
   formf:     vps(g=0)=  -0.0008735     rhops(g=0)=  -0.0004541
   formf:     vps(g=0)=  -0.0008715     rhops(g=0)=  -0.0004521
   formf: sum_g vps(g)=  -6.2777102 sum_g rhops(g)=  -1.0524995
   formf:     vps(g=0)=  -0.0000640     rhops(g=0)=  -0.0000771
   formf:     vps(g=0)=  -0.0000639     rhops(g=0)=  -0.0000769
   formf:     vps(g=0)=  -0.0000638     rhops(g=0)=  -0.0000765
   formf:     vps(g=0)=  -0.0000638     rhops(g=0)=  -0.0000765
   formf:     vps(g=0)=  -0.0000637     rhops(g=0)=  -0.0000764
   formf: sum_g vps(g)=  -2.1002157 sum_g rhops(g)=  -0.7183870
   Delta V(G=0):   0.067259Ry,    1.830217eV

   from rhoofr: total integrated electronic density
   in g-space =    512.000000   in r-space =   512.000000
     Total Electronic Pressure (GPa)     1683.22178      0
 
  nfi     ekinc              temph  tempp     etot                 enthal               econs                econt              vnhh    xnhh0   vnhp    xnhp0
      1  127.306569203090078    0.0    0.00     710.301280491553     710.301280491553     710.301280491553     837.607849694643   0.0000   0.0000   0.0000   0.0000
      2  285.478825885189963    0.0    0.00     369.808687646260     369.808687646260     369.808687646260     655.287513531450   0.0000   0.0000   0.0000   0.0000
      3  378.676375995683770    0.0    0.00      -5.231545729505      -5.231545729505      -5.231545729505     373.444830266179   0.0000   0.0000   0.0000   0.0000
      4  372.922848754087795    0.0    0.00    -308.208815671645    -308.208815671645    -308.208815671645      64.714033082442   0.0000   0.0000   0.0000   0.0000
      5  297.484618273266392    0.0    0.00    -500.113874979199    -500.113874979199    -500.113874979199    -202.629256705933   0.0000   0.0000   0.0000   0.0000
      6  202.750636458531972    0.0    0.00    -600.022310123152    -600.022310123152    -600.022310123152    -397.271673664620   0.0000   0.0000   0.0000   0.0000
      7  125.224429024652324    0.0    0.00    -648.298759724427    -648.298759724427    -648.298759724427    -523.074330699775   0.0000   0.0000   0.0000   0.0000
      8   76.572903577202737    0.0    0.00    -676.982849845339    -676.982849845339    -676.982849845339    -600.409946268136   0.0000   0.0000   0.0000   0.0000
      9   51.750421455112928    0.0    0.00    -702.061443601590    -702.061443601590    -702.061443601590    -650.311022146478   0.0000   0.0000   0.0000   0.0000

 * Physical Quantities at step:    10
     Pressure of Nuclei (GPa)             0.00000     10
     Pressure Total (GPa)           168.40233     10


                total energy =     -727.63426252898 Hartree a.u.
              kinetic energy =      593.24060 Hartree a.u.
        electrostatic energy =    -1093.00215 Hartree a.u.
                         esr =        2.03871 Hartree a.u.
                       eself =     1251.08299 Hartree a.u.
      pseudopotential energy =     -379.40137 Hartree a.u.
  n-l pseudopotential energy =      167.20741 Hartree a.u.
 exchange-correlation energy =      -15.67875 Hartree a.u.
           average potential =        0.00000 Hartree a.u.



   Eigenvalues (eV), kp =   1 , spin =  1

  -26.23  -25.52  -25.14  -24.75  -24.45  -22.87  -22.77  -22.56  -22.24  -22.21
  -21.96  -21.88  -21.78  -21.63  -21.51  -21.40  -21.15  -20.44  -20.33  -20.24
  -20.04  -19.99  -19.90  -19.87  -19.83  -19.75  -19.72  -19.61  -19.50  -19.48
  -19.44  -19.40  -19.30  -19.19  -19.03  -18.96  -18.89  -18.85  -18.74  -18.66
  -18.61  -18.57  -18.55  -18.47  -18.38  -18.35  -18.31  -18.29  -18.17  -18.02
  -17.97  -17.89  -17.80  -17.79  -17.59  -17.57  -17.47  -17.39  -17.21  -17.11
  -17.04  -17.02  -16.64  -16.47   -5.46   -4.94   -4.71   -4.61   -4.57   -4.33
   -4.07   -3.82   -3.64   -3.54   -3.53   -3.38   -3.25   -3.14   -3.08   -2.91
   -2.84   -2.80   -2.69   -2.59   -2.55   -2.49   -2.35   -2.32   -2.23   -2.15
   -2.06   -2.01   -1.96   -1.91   -1.85   -1.79   -1.68   -1.61   -1.51   -1.50
   -1.41   -1.34   -1.28   -1.20   -1.14   -1.07   -1.00   -0.95   -0.90   -0.79
   -0.75   -0.64   -0.56   -0.51   -0.50   -0.42   -0.35   -0.26   -0.19   -0.17
   -0.16   -0.07    0.04    0.17    0.23    0.25    0.39    0.47    0.49    0.58
    0.66    0.74    0.79    0.90    0.95    1.03    1.08    1.21    1.24    1.32
    1.34    1.49    1.58    1.67    1.72    1.83    1.94    2.03    2.09    2.22
    2.32    2.36    2.49    2.61    2.70    2.72    2.82    2.85    2.89    2.98
    3.13    3.31    3.41    3.49    3.56    3.71    3.74    3.87    3.97    4.06
    4.19    4.38    4.55    4.62    4.64    4.87    4.90    5.01    5.15    5.19
    5.33    5.54    5.62    5.74    5.84    6.01    6.05    6.38    6.63    6.65
    6.80    7.01    7.13    7.33    7.47    7.61    7.64    7.70    8.02    8.18
    8.48    8.58    8.69    8.85    9.04    9.16    9.35    9.58    9.65    9.92
   10.25   10.34   10.60   10.73   10.91   11.14   11.26   11.49   11.69   11.87
   12.16   12.32   12.41   12.62   12.85   12.91   13.18   13.42   13.45   13.60
   13.89   14.24   14.35   14.56   14.80   15.09   15.21   15.43   15.52   15.59
   16.00   16.03   16.25   16.51   16.69   16.78   17.29   17.52   17.73   17.86
   18.28   18.32   19.01   19.05   19.34   19.55
 
 
   CELL_PARAMETERS
   18.65000000    0.00000000    0.00000000
    0.00000000   18.65000000    0.00000000
    0.00000000    0.00000000   37.30000000

   System Density [g/cm^3] :              0.9959132616


   System Volume [A.U.^3] :          12973.7792500000


   Center of mass square displacement (a.u.):   0.000000

   Total stress (GPa)
      175.37103336        -0.52547145        -3.47756231
       -0.52547145       163.74071594         3.53873817
       -3.47756231         3.53873817       166.09525131
   ATOMIC_POSITIONS
   O       0.62328300000000E+01     0.71951700000000E+01     0.31742300000000E+01
   O       0.12460065000000E+02     0.14397800000000E+01     0.18575400000000E+01
   O       0.91273100000000E+01     0.51324800000000E+01     0.18023360000000E+02
   O       0.15617510000000E+02     0.30772500000000E+00     0.16568660000000E+02
   O       0.77658600000000E+01     0.26221900000000E+01     0.10022510000000E+02
   O       0.17158000000000E+02     0.51212900000000E+01     0.13950200000000E+02
   O       0.17340770000000E+02     0.12605535000000E+02     0.10182900000000E+01
   O       0.96924050000000E+01     0.10766645000000E+02     0.46065500000000E+01
   O       0.15764845000000E+02     0.43044200000000E+01     0.47184500000000E+01
   O       0.13204200000000E+02     0.84148800000000E+01     0.20552300000000E+01
   O       0.11743905000000E+02     0.12568235000000E+02     0.87617700000000E+01
   O       0.12847985000000E+02     0.82582200000000E+01     0.15106500000000E+02
   O       0.17294145000000E+02     0.16522035000000E+02     0.51250200000000E+01
   O       0.13539900000000E+02     0.17851780000000E+02     0.84186100000000E+01
   O       0.17790235000000E+02     0.11743905000000E+02     0.11756960000000E+02
   O       0.11824100000000E+01     0.78274050000000E+01     0.49720900000000E+01
   O       0.16412000000000E+00     0.26277850000000E+01     0.94592800000000E+01
   O       0.14998330000000E+02     0.81593750000000E+01     0.92168300000000E+01
   O       0.13019565000000E+02     0.35304450000000E+01     0.10880410000000E+02
   O       0.54234200000000E+01     0.96942700000000E+01     0.97614100000000E+01
   O       0.34222750000000E+01     0.74059150000000E+01     0.14561920000000E+02
   O       0.45692500000000E+01     0.37747600000000E+01     0.64790100000000E+01
   O       0.57106300000000E+01     0.29355100000000E+01     0.14908810000000E+02
   O       0.83272250000000E+01     0.15645485000000E+02     0.40284000000000E+01
   O       0.36013150000000E+01     0.10701370000000E+02     0.89520000000000E-01
   O       0.35043350000000E+01     0.18025225000000E+02     0.35435000000000E+01
   O       0.16337400000000E+01     0.12433955000000E+02     0.76166600000000E+01
   O       0.49180050000000E+01     0.13942740000000E+02     0.14696200000000E+02
   O       0.97035950000000E+01     0.11803585000000E+02     0.13454110000000E+02
   O       0.69266100000000E+01     0.16342995000000E+02     0.91385000000000E+01
   O       0.14761475000000E+02     0.15460850000000E+02     0.13155710000000E+02
   O       0.26781400000000E+01     0.18461635000000E+02     0.17337040000000E+02
   O       0.62328300000000E+01     0.71951700000000E+01     0.21824230000000E+02
   O       0.12460065000000E+02     0.14397800000000E+01     0.20507540000000E+02
   O       0.91273100000000E+01     0.51324800000000E+01     0.36673360000000E+02
   O       0.15617510000000E+02     0.30772500000000E+00     0.35218660000000E+02
   O       0.77658600000000E+01     0.26221900000000E+01     0.28672510000000E+02
   O       0.17158000000000E+02     0.51212900000000E+01     0.32600200000000E+02
   O       0.17340770000000E+02     0.12605535000000E+02     0.19668290000000E+02
   O       0.96924050000000E+01     0.10766645000000E+02     0.23256550000000E+02
   O       0.15764845000000E+02     0.43044200000000E+01     0.23368450000000E+02
   O       0.13204200000000E+02     0.84148800000000E+01     0.20705230000000E+02
   O       0.11743905000000E+02     0.12568235000000E+02     0.27411770000000E+02
   O       0.12847985000000E+02     0.82582200000000E+01     0.33756500000000E+02
   O       0.17294145000000E+02     0.16522035000000E+02     0.23775020000000E+02
   O       0.13539900000000E+02     0.17851780000000E+02     0.27068610000000E+02
   O       0.17790235000000E+02     0.11743905000000E+02     0.30406960000000E+02
   O       0.11824100000000E+01     0.78274050000000E+01     0.23622090000000E+02
   O       0.16412000000000E+00     0.26277850000000E+01     0.28109280000000E+02
   O       0.14998330000000E+02     0.81593750000000E+01     0.27866830000000E+02
   O       0.13019565000000E+02     0.35304450000000E+01     0.29530410000000E+02
   O       0.54234200000000E+01     0.96942700000000E+01     0.28411410000000E+02
   O       0.34222750000000E+01     0.74059150000000E+01     0.33211920000000E+02
   O       0.45692500000000E+01     0.37747600000000E+01     0.25129010000000E+02
   O       0.57106300000000E+01     0.29355100000000E+01     0.33558810000000E+02
   O       0.83272250000000E+01     0.15645485000000E+02     0.22678400000000E+02
   O       0.36013150000000E+01     0.10701370000000E+02     0.18739520000000E+02
   O       0.35043350000000E+01     0.18025225000000E+02     0.22193500000000E+02
   O       0.16337400000000E+01     0.12433955000000E+02     0.26266660000000E+02
   O       0.49180050000000E+01     0.13942740000000E+02     0.33346200000000E+02
   O       0.97035950000000E+01     0.11803585000000E+02     0.32104110000000E+02
   O       0.69266100000000E+01     0.16342995000000E+02     0.27788500000000E+02
   O       0.14761475000000E+02     0.15460850000000E+02     0.31805710000000E+02
   O       0.26781400000000E+01     0.18461635000000E+02     0.35987040000000E+02
   H       0.69788300000000E+01     0.62664000000000E+01     0.17307200000000E+01
   H       0.58747500000000E+01     0.60164900000000E+01     0.46102800000000E+01
   H       0.17540325000000E+02     0.33644600000000E+01     0.84223400000000E+01
   H       0.11305630000000E+02     0.16039000000000E+00     0.25587800000000E+01
   H       0.13485815000000E+02     0.66021000000000E+00     0.49236000000000E+00
   H       0.10182900000000E+02     0.37337300000000E+01     0.18433660000000E+02
   H       0.10261230000000E+02     0.60966850000000E+01     0.16840950000000E+02
   H       0.15921505000000E+02     0.19563850000000E+01     0.15815200000000E+02
   H       0.79281150000000E+01     0.80568000000000E+00     0.97166500000000E+01
   H       0.69415300000000E+01     0.28776950000000E+01     0.11701010000000E+02
   H       0.13131465000000E+02     0.90639000000000E+00     0.91571500000000E+01
   H       0.17489970000000E+02     0.40862150000000E+01     0.12346300000000E+02
   H       0.16939795000000E+02     0.13687235000000E+02     0.24506100000000E+01
   H       0.11078100000000E+02     0.10076595000000E+02     0.35770700000000E+01
   H       0.82302450000000E+01     0.95861000000000E+01     0.42969600000000E+01
   H       0.14873375000000E+02     0.30268950000000E+01     0.36143700000000E+01
   H       0.17439615000000E+02     0.46438500000000E+01     0.40470500000000E+01
   H       0.13978175000000E+02     0.70758100000000E+01     0.32898600000000E+01
   H       0.14489185000000E+02     0.98117650000000E+01     0.17680200000000E+01
   H       0.13506330000000E+02     0.12100120000000E+02     0.84186100000000E+01
   H       0.10839380000000E+02     0.11480940000000E+02     0.75196800000000E+01
   H       0.14192650000000E+02     0.74432150000000E+01     0.14147890000000E+02
   H       0.13526845000000E+02     0.84838850000000E+01     0.16807380000000E+02
   H       0.18286325000000E+02     0.15140070000000E+02     0.58896700000000E+01
   H       0.16363510000000E+02     0.17221410000000E+02     0.65424200000000E+01
   H       0.15416090000000E+02     0.17590680000000E+02     0.15266890000000E+02
   H       0.12008735000000E+02     0.16885710000000E+02     0.86871700000000E+01
   H       0.16969635000000E+02     0.13207930000000E+02     0.12570100000000E+02
   H       0.21372900000000E+01     0.64808750000000E+01     0.58374500000000E+01
   H       0.21951050000000E+01     0.85640800000000E+01     0.36106400000000E+01
   H       0.18351600000000E+01     0.34763600000000E+01     0.92131000000000E+01
   H       0.16285180000000E+02     0.91440950000000E+01     0.10130680000000E+02
   H       0.15789090000000E+02     0.75476550000000E+01     0.76539600000000E+01
   H       0.11158295000000E+02     0.34483850000000E+01     0.10738670000000E+02
   H       0.13530575000000E+02     0.53450900000000E+01     0.10477570000000E+02
   H       0.46028200000000E+01     0.11208650000000E+02     0.92280200000000E+01
   H       0.68165750000000E+01     0.10279880000000E+02     0.10753590000000E+02
   H       0.41365700000000E+01     0.83514700000000E+01     0.13025160000000E+02
   H       0.42372800000000E+01     0.56453550000000E+01     0.14427640000000E+02
   H       0.16598500000000E+00     0.59157800000000E+01     0.14453750000000E+02
   H       0.59791900000000E+01     0.32749400000000E+01     0.76949900000000E+01
   H       0.43044200000000E+01     0.23312500000000E+01     0.52220000000000E+01
   H       0.45133000000000E+01     0.19153550000000E+01     0.15945750000000E+02
   H       0.69974800000000E+01     0.36609950000000E+01     0.16229230000000E+02
   H       0.64846050000000E+01     0.15962535000000E+02     0.35435000000000E+01
   H       0.88363700000000E+01     0.13834570000000E+02     0.39202300000000E+01
   H       0.55390500000000E+00     0.12357490000000E+02     0.11264600000000E+01
   H       0.49758200000000E+01     0.99964000000000E+01     0.11190000000000E+01
   H       0.31537150000000E+01     0.18431795000000E+02     0.17866700000000E+01
   H       0.17754800000000E+01     0.17489970000000E+02     0.41738700000000E+01
   H       0.30026500000000E+00     0.12100120000000E+02     0.88923200000000E+01
   H       0.17531000000000E+01     0.10703235000000E+02     0.69564500000000E+01
   H       0.50877200000000E+01     0.13045675000000E+02     0.16341130000000E+02
   H       0.66226150000000E+01     0.13948335000000E+02     0.14021070000000E+02
   H       0.10839380000000E+02     0.10399240000000E+02     0.14136700000000E+02
   H       0.10453325000000E+02     0.12340705000000E+02     0.11842750000000E+02
   H       0.32469650000000E+01     0.95842350000000E+01     0.17314660000000E+02
   H       0.56434900000000E+01     0.15028170000000E+02     0.94816600000000E+01
   H       0.75849550000000E+01     0.15988645000000E+02     0.73481000000000E+01
   H       0.13129600000000E+02     0.14854725000000E+02     0.13737590000000E+02
   H       0.14390340000000E+02     0.16053920000000E+02     0.11372770000000E+02
   H       0.27602000000000E+00     0.11270195000000E+02     0.13174360000000E+02
   H       0.34204100000000E+01     0.16993880000000E+02     0.16154630000000E+02
   H       0.91758000000000E+00     0.18452310000000E+02     0.17169190000000E+02
   H       0.69788300000000E+01     0.62664000000000E+01     0.20380720000000E+02
   H       0.58747500000000E+01     0.60164900000000E+01     0.23260280000000E+02
   H       0.17540325000000E+02     0.33644600000000E+01     0.27072340000000E+02
   H       0.11305630000000E+02     0.16039000000000E+00     0.21208780000000E+02
   H       0.13485815000000E+02     0.66021000000000E+00     0.19142360000000E+02
   H       0.10182900000000E+02     0.37337300000000E+01     0.37083660000000E+02
   H       0.10261230000000E+02     0.60966850000000E+01     0.35490950000000E+02
   H       0.15921505000000E+02     0.19563850000000E+01     0.34465200000000E+02
   H       0.79281150000000E+01     0.80568000000000E+00     0.28366650000000E+02
   H       0.69415300000000E+01     0.28776950000000E+01     0.30351010000000E+02
   H       0.13131465000000E+02     0.90639000000000E+00     0.27807150000000E+02
   H       0.17489970000000E+02     0.40862150000000E+01     0.30996300000000E+02
   H       0.16939795000000E+02     0.13687235000000E+02     0.21100610000000E+02
   H       0.11078100000000E+02     0.10076595000000E+02     0.22227070000000E+02
   H       0.82302450000000E+01     0.95861000000000E+01     0.22946960000000E+02
   H       0.14873375000000E+02     0.30268950000000E+01     0.22264370000000E+02
   H       0.17439615000000E+02     0.46438500000000E+01     0.22697050000000E+02
   H       0.13978175000000E+02     0.70758100000000E+01     0.21939860000000E+02
   H       0.14489185000000E+02     0.98117650000000E+01     0.20418020000000E+02
   H       0.13506330000000E+02     0.12100120000000E+02     0.27068610000000E+02
   H       0.10839380000000E+02     0.11480940000000E+02     0.26169680000000E+02
   H       0.14192650000000E+02     0.74432150000000E+01     0.32797890000000E+02
   H       0.13526845000000E+02     0.84838850000000E+01     0.35457380000000E+02
   H       0.18286325000000E+02     0.15140070000000E+02     0.24539670000000E+02
   H       0.16363510000000E+02     0.17221410000000E+02     0.25192420000000E+02
   H       0.15416090000000E+02     0.17590680000000E+02     0.33916890000000E+02
   H       0.12008735000000E+02     0.16885710000000E+02     0.27337170000000E+02
   H       0.16969635000000E+02     0.13207930000000E+02     0.31220100000000E+02
   H       0.21372900000000E+01     0.64808750000000E+01     0.24487450000000E+02
   H       0.21951050000000E+01     0.85640800000000E+01     0.22260640000000E+02
   H       0.18351600000000E+01     0.34763600000000E+01     0.27863100000000E+02
   H       0.16285180000000E+02     0.91440950000000E+01     0.28780680000000E+02
   H       0.15789090000000E+02     0.75476550000000E+01     0.26303960000000E+02
   H       0.11158295000000E+02     0.34483850000000E+01     0.29388670000000E+02
   H       0.13530575000000E+02     0.53450900000000E+01     0.29127570000000E+02
   H       0.46028200000000E+01     0.11208650000000E+02     0.27878020000000E+02
   H       0.68165750000000E+01     0.10279880000000E+02     0.29403590000000E+02
   H       0.41365700000000E+01     0.83514700000000E+01     0.31675160000000E+02
   H       0.42372800000000E+01     0.56453550000000E+01     0.33077640000000E+02
   H       0.16598500000000E+00     0.59157800000000E+01     0.33103750000000E+02
   H       0.59791900000000E+01     0.32749400000000E+01     0.26344990000000E+02
   H       0.43044200000000E+01     0.23312500000000E+01     0.23872000000000E+02
   H       0.45133000000000E+01     0.19153550000000E+01     0.34595750000000E+02
   H       0.69974800000000E+01     0.36609950000000E+01     0.34879230000000E+02
   H       0.64846050000000E+01     0.15962535000000E+02     0.22193500000000E+02
   H       0.88363700000000E+01     0.13834570000000E+02     0.22570230000000E+02
   H       0.55390500000000E+00     0.12357490000000E+02     0.19776460000000E+02
   H       0.49758200000000E+01     0.99964000000000E+01     0.19769000000000E+02
   H       0.31537150000000E+01     0.18431795000000E+02     0.20436670000000E+02
   H       0.17754800000000E+01     0.17489970000000E+02     0.22823870000000E+02
   H       0.30026500000000E+00     0.12100120000000E+02     0.27542320000000E+02
   H       0.17531000000000E+01     0.10703235000000E+02     0.25606450000000E+02
   H       0.50877200000000E+01     0.13045675000000E+02     0.34991130000000E+02
   H       0.66226150000000E+01     0.13948335000000E+02     0.32671070000000E+02
   H       0.10839380000000E+02     0.10399240000000E+02     0.32786700000000E+02
   H       0.10453325000000E+02     0.12340705000000E+02     0.30492750000000E+02
   H       0.32469650000000E+01     0.95842350000000E+01     0.35964660000000E+02
   H       0.56434900000000E+01     0.15028170000000E+02     0.28131660000000E+02
   H       0.75849550000000E+01     0.15988645000000E+02     0.25998100000000E+02
   H       0.13129600000000E+02     0.14854725000000E+02     0.32387590000000E+02
   H       0.14390340000000E+02     0.16053920000000E+02     0.30022770000000E+02
   H       0.27602000000000E+00     0.11270195000000E+02     0.31824360000000E+02
   H       0.34204100000000E+01     0.16993880000000E+02     0.34804630000000E+02
   H       0.91758000000000E+00     0.18452310000000E+02     0.35819190000000E+02
 
   ATOMIC_VELOCITIES
   O       0.00000000000000E+00     0.00000000000000E+00     0.00000000000000E+00
   O       0.00000000000000E+00     0.00000000000000E+00     0.00000000000000E+00
   O       0.00000000000000E+00     0.00000000000000E+00     0.00000000000000E+00
   O       0.00000000000000E+00     0.00000000000000E+00     0.00000000000000E+00
   O       0.00000000000000E+00     0.00000000000000E+00     0.00000000000000E+00
   O       0.00000000000000E+00     0.00000000000000E+00     0.00000000000000E+00
   O       0.00000000000000E+00     0.00000000000000E+00     0.00000000000000E+00
   O       0.00000000000000E+00     0.00000000000000E+00     0.00000000000000E+00
   O       0.00000000000000E+00     0.00000000000000E+00     0.00000000000000E+00
   O       0.00000000000000E+00     0.00000000000000E+00     0.00000000000000E+00
   O       0.00000000000000E+00     0.00000000000000E+00     0.00000000000000E+00
   O       0.00000000000000E+00     0.00000000000000E+00     0.00000000000000E+00
   O       0.00000000000000E+00     0.00000000000000E+00     0.00000000000000E+00
   O       0.00000000000000E+00     0.00000000000000E+00     0.00000000000000E+00
   O       0.00000000000000E+00     0.00000000000000E+00     0.00000000000000E+00
   O       0.00000000000000E+00     0.00000000000000E+00     0.00000000000000E+00
   O       0.00000000000000E+00     0.00000000000000E+00     0.00000000000000E+00
   O       0.00000000000000E+00     0.00000000000000E+00     0.00000000000000E+00
   O       0.00000000000000E+00     0.00000000000000E+00     0.00000000000000E+00
   O       0.00000000000000E+00     0.00000000000000E+00     0.00000000000000E+00
   O       0.00000000000000E+00     0.00000000000000E+00     0.00000000000000E+00
   O       0.00000000000000E+00     0.00000000000000E+00     0.00000000000000E+00
   O       0.00000000000000E+00     0.00000000000000E+00     0.00000000000000E+00
   O       0.00000000000000E+00     0.00000000000000E+00     0.00000000000000E+00
   O       0.00000000000000E+00     0.00000000000000E+00     0.00000000000000E+00
   O       0.00000000000000E+00     0.00000000000000E+00     0.00000000000000E+00
   O       0.00000000000000E+00     0.00000000000000E+00     0.00000000000000E+00
   O       0.00000000000000E+00     0.00000000000000E+00     0.00000000000000E+00
   O       0.00000000000000E+00     0.00000000000000E+00     0.00000000000000E+00
   O       0.00000000000000E+00     0.00000000000000E+00     0.00000000000000E+00
   O       0.00000000000000E+00     0.00000000000000E+00     0.00000000000000E+00
   O       0.00000000000000E+00     0.00000000000000E+00     0.00000000000000E+00
   O       0.00000000000000E+00     0.00000000000000E+00     0.00000000000000E+00
   O       0.00000000000000E+00     0.00000000000000E+00     0.00000000000000E+00
   O       0.00000000000000E+00     0.00000000000000E+00     0.00000000000000E+00
   O       0.00000000000000E+00     0.00000000000000E+00     0.00000000000000E+00
   O       0.00000000000000E+00     0.00000000000000E+00     0.00000000000000E+00
   O       0.00000000000000E+00     0.00000000000000E+00     0.00000000000000E+00
   O       0.00000000000000E+00     0.00000000000000E+00     0.00000000000000E+00
   O       0.00000000000000E+00     0.00000000000000E+00     0.00000000000000E+00
   O       0.00000000000000E+00     0.00000000000000E+00     0.00000000000000E+00
   O       0.00000000000000E+00     0.00000000000000E+00     0.00000000000000E+00
   O       0.00000000000000E+00     0.00000000000000E+00     0.00000000000000E+00
   O       0.00000000000000E+00     0.00000000000000E+00     0.00000000000000E+00
   O       0.00000000000000E+00     0.00000000000000E+00     0.00000000000000E+00
   O       0.00000000000000E+00     0.00000000000000E+00     0.00000000000000E+00
   O       0.00000000000000E+00     0.00000000000000E+00     0.00000000000000E+00
   O       0.00000000000000E+00     0.00000000000000E+00     0.00000000000000E+00
   O       0.00000000000000E+00     0.00000000000000E+00     0.00000000000000E+00
   O       0.00000000000000E+00     0.00000000000000E+00     0.00000000000000E+00
   O       0.00000000000000E+00     0.00000000000000E+00     0.00000000000000E+00
   O       0.00000000000000E+00     0.00000000000000E+00     0.00000000000000E+00
   O       0.00000000000000E+00     0.00000000000000E+00     0.00000000000000E+00
   O       0.00000000000000E+00     0.00000000000000E+00     0.00000000000000E+00
   O       0.00000000000000E+00     0.00000000000000E+00     0.00000000000000E+00
   O       0.00000000000000E+00     0.00000000000000E+00     0.00000000000000E+00
   O       0.00000000000000E+00     0.00000000000000E+00     0.00000000000000E+00
   O       0.00000000000000E+00     0.00000000000000E+00     0.00000000000000E+00
   O       0.00000000000000E+00     0.00000000000000E+00     0.00000000000000E+00
   O       0.00000000000000E+00     0.00000000000000E+00     0.00000000000000E+00
   O       0.00000000000000E+00     0.00000000000000E+00     0.00000000000000E+00
   O       0.00000000000000E+00     0.00000000000000E+00     0.00000000000000E+00
   O       0.00000000000000E+00     0.00000000000000E+00     0.00000000000000E+00
   O       0.00000000000000E+00     0.00000000000000E+00     0.00000000000000E+00
   H       0.00000000000000E+00     0.00000000000000E+00     0.00000000000000E+00
   H       0.00000000000000E+00     0.00000000000000E+00     0.00000000000000E+00
   H       0.00000000000000E+00     0.00000000000000E+00     0.00000000000000E+00
   H       0.00000000000000E+00     0.00000000000000E+00     0.00000000000000E+00
   H       0.00000000000000E+00     0.00000000000000E+00     0.00000000000000E+00
   H       0.00000000000000E+00     0.00000000000000E+00     0.00000000000000E+00
   H       0.00000000000000E+00     0.00000000000000E+00     0.00000000000000E+00
   H       0.00000000000000E+00     0.00000000000000E+00     0.00000000000000E+00
   H       0.00000000000000E+00     0.00000000000000E+00     0.00000000000000E+00
   H       0.00000000000000E+00     0.00000000000000E+00     0.00000000000000E+00
   H       0.00000000000000E+00     0.00000000000000E+00     0.00000000000000E+00
   H       0.00000000000000E+00     0.00000000000000E+00     0.00000000000000E+00
   H       0.00000000000000E+00     0.00000000000000E+00     0.00000000000000E+00
   H       0.00000000000000E+00     0.00000000000000E+00     0.00000000000000E+00
   H       0.00000000000000E+00     0.00000000000000E+00     0.00000000000000E+00
   H       0.00000000000000E+00     0.00000000000000E+00     0.00000000000000E+00
   H       0.00000000000000E+00     0.00000000000000E+00     0.00000000000000E+00
   H       0.00000000000000E+00     0.00000000000000E+00     0.00000000000000E+00
   H       0.00000000000000E+00     0.00000000000000E+00     0.00000000000000E+00
   H       0.00000000000000E+00     0.00000000000000E+00     0.00000000000000E+00
   H       0.00000000000000E+00     0.00000000000000E+00     0.00000000000000E+00
   H       0.00000000000000E+00     0.00000000000000E+00     0.00000000000000E+00
   H       0.00000000000000E+00     0.00000000000000E+00     0.00000000000000E+00
   H       0.00000000000000E+00     0.00000000000000E+00     0.00000000000000E+00
   H       0.00000000000000E+00     0.00000000000000E+00     0.00000000000000E+00
   H       0.00000000000000E+00     0.00000000000000E+00     0.00000000000000E+00
   H       0.00000000000000E+00     0.00000000000000E+00     0.00000000000000E+00
   H       0.00000000000000E+00     0.00000000000000E+00     0.00000000000000E+00
   H       0.00000000000000E+00     0.00000000000000E+00     0.00000000000000E+00
   H       0.00000000000000E+00     0.00000000000000E+00     0.00000000000000E+00
   H       0.00000000000000E+00     0.00000000000000E+00     0.00000000000000E+00
   H       0.00000000000000E+00     0.00000000000000E+00     0.00000000000000E+00
   H       0.00000000000000E+00     0.00000000000000E+00     0.00000000000000E+00
   H       0.00000000000000E+00     0.00000000000000E+00     0.00000000000000E+00
   H       0.00000000000000E+00     0.00000000000000E+00     0.00000000000000E+00
   H       0.00000000000000E+00     0.00000000000000E+00     0.00000000000000E+00
   H       0.00000000000000E+00     0.00000000000000E+00     0.00000000000000E+00
   H       0.00000000000000E+00     0.00000000000000E+00     0.00000000000000E+00
   H       0.00000000000000E+00     0.00000000000000E+00     0.00000000000000E+00
   H       0.00000000000000E+00     0.00000000000000E+00     0.00000000000000E+00
   H       0.00000000000000E+00     0.00000000000000E+00     0.00000000000000E+00
   H       0.00000000000000E+00     0.00000000000000E+00     0.00000000000000E+00
   H       0.00000000000000E+00     0.00000000000000E+00     0.00000000000000E+00
   H       0.00000000000000E+00     0.00000000000000E+00     0.00000000000000E+00
   H       0.00000000000000E+00     0.00000000000000E+00     0.00000000000000E+00
   H       0.00000000000000E+00     0.00000000000000E+00     0.00000000000000E+00
   H       0.00000000000000E+00     0.00000000000000E+00     0.00000000000000E+00
   H       0.00000000000000E+00     0.00000000000000E+00     0.00000000000000E+00
   H       0.00000000000000E+00     0.00000000000000E+00     0.00000000000000E+00
   H       0.00000000000000E+00     0.00000000000000E+00     0.00000000000000E+00
   H       0.00000000000000E+00     0.00000000000000E+00     0.00000000000000E+00
   H       0.00000000000000E+00     0.00000000000000E+00     0.00000000000000E+00
   H       0.00000000000000E+00     0.00000000000000E+00     0.00000000000000E+00
   H       0.00000000000000E+00     0.00000000000000E+00     0.00000000000000E+00
   H       0.00000000000000E+00     0.00000000000000E+00     0.00000000000000E+00
   H       0.00000000000000E+00     0.00000000000000E+00     0.00000000000000E+00
   H       0.00000000000000E+00     0.00000000000000E+00     0.00000000000000E+00
   H       0.00000000000000E+00     0.00000000000000E+00     0.00000000000000E+00
   H       0.00000000000000E+00     0.00000000000000E+00     0.00000000000000E+00
   H       0.00000000000000E+00     0.00000000000000E+00     0.00000000000000E+00
   H       0.00000000000000E+00     0.00000000000000E+00     0.00000000000000E+00
   H       0.00000000000000E+00     0.00000000000000E+00     0.00000000000000E+00
   H       0.00000000000000E+00     0.00000000000000E+00     0.00000000000000E+00
   H       0.00000000000000E+00     0.00000000000000E+00     0.00000000000000E+00
   H       0.00000000000000E+00     0.00000000000000E+00     0.00000000000000E+00
   H       0.00000000000000E+00     0.00000000000000E+00     0.00000000000000E+00
   H       0.00000000000000E+00     0.00000000000000E+00     0.00000000000000E+00
   H       0.00000000000000E+00     0.00000000000000E+00     0.00000000000000E+00
   H       0.00000000000000E+00     0.00000000000000E+00     0.00000000000000E+00
   H       0.00000000000000E+00     0.00000000000000E+00     0.00000000000000E+00
   H       0.00000000000000E+00     0.00000000000000E+00     0.00000000000000E+00
   H       0.00000000000000E+00     0.00000000000000E+00     0.00000000000000E+00
   H       0.00000000000000E+00     0.00000000000000E+00     0.00000000000000E+00
   H       0.00000000000000E+00     0.00000000000000E+00     0.00000000000000E+00
   H       0.00000000000000E+00     0.00000000000000E+00     0.00000000000000E+00
   H       0.00000000000000E+00     0.00000000000000E+00     0.00000000000000E+00
   H       0.00000000000000E+00     0.00000000000000E+00     0.00000000000000E+00
   H       0.00000000000000E+00     0.00000000000000E+00     0.00000000000000E+00
   H       0.00000000000000E+00     0.00000000000000E+00     0.00000000000000E+00
   H       0.00000000000000E+00     0.00000000000000E+00     0.00000000000000E+00
   H       0.00000000000000E+00     0.00000000000000E+00     0.00000000000000E+00
   H       0.00000000000000E+00     0.00000000000000E+00     0.00000000000000E+00
   H       0.00000000000000E+00     0.00000000000000E+00     0.00000000000000E+00
   H       0.00000000000000E+00     0.00000000000000E+00     0.00000000000000E+00
   H       0.00000000000000E+00     0.00000000000000E+00     0.00000000000000E+00
   H       0.00000000000000E+00     0.00000000000000E+00     0.00000000000000E+00
   H       0.00000000000000E+00     0.00000000000000E+00     0.00000000000000E+00
   H       0.00000000000000E+00     0.00000000000000E+00     0.00000000000000E+00
   H       0.00000000000000E+00     0.00000000000000E+00     0.00000000000000E+00
   H       0.00000000000000E+00     0.00000000000000E+00     0.00000000000000E+00
   H       0.00000000000000E+00     0.00000000000000E+00     0.00000000000000E+00
   H       0.00000000000000E+00     0.00000000000000E+00     0.00000000000000E+00
   H       0.00000000000000E+00     0.00000000000000E+00     0.00000000000000E+00
   H       0.00000000000000E+00     0.00000000000000E+00     0.00000000000000E+00
   H       0.00000000000000E+00     0.00000000000000E+00     0.00000000000000E+00
   H       0.00000000000000E+00     0.00000000000000E+00     0.00000000000000E+00
   H       0.00000000000000E+00     0.00000000000000E+00     0.00000000000000E+00
   H       0.00000000000000E+00     0.00000000000000E+00     0.00000000000000E+00
   H       0.00000000000000E+00     0.00000000000000E+00     0.00000000000000E+00
   H       0.00000000000000E+00     0.00000000000000E+00     0.00000000000000E+00
   H       0.00000000000000E+00     0.00000000000000E+00     0.00000000000000E+00
   H       0.00000000000000E+00     0.00000000000000E+00     0.00000000000000E+00
   H       0.00000000000000E+00     0.00000000000000E+00     0.00000000000000E+00
   H       0.00000000000000E+00     0.00000000000000E+00     0.00000000000000E+00
   H       0.00000000000000E+00     0.00000000000000E+00     0.00000000000000E+00
   H       0.00000000000000E+00     0.00000000000000E+00     0.00000000000000E+00
   H       0.00000000000000E+00     0.00000000000000E+00     0.00000000000000E+00
   H       0.00000000000000E+00     0.00000000000000E+00     0.00000000000000E+00
   H       0.00000000000000E+00     0.00000000000000E+00     0.00000000000000E+00
   H       0.00000000000000E+00     0.00000000000000E+00     0.00000000000000E+00
   H       0.00000000000000E+00     0.00000000000000E+00     0.00000000000000E+00
   H       0.00000000000000E+00     0.00000000000000E+00     0.00000000000000E+00
   H       0.00000000000000E+00     0.00000000000000E+00     0.00000000000000E+00
   H       0.00000000000000E+00     0.00000000000000E+00     0.00000000000000E+00
   H       0.00000000000000E+00     0.00000000000000E+00     0.00000000000000E+00
   H       0.00000000000000E+00     0.00000000000000E+00     0.00000000000000E+00
   H       0.00000000000000E+00     0.00000000000000E+00     0.00000000000000E+00
   H       0.00000000000000E+00     0.00000000000000E+00     0.00000000000000E+00
   H       0.00000000000000E+00     0.00000000000000E+00     0.00000000000000E+00
   H       0.00000000000000E+00     0.00000000000000E+00     0.00000000000000E+00
   H       0.00000000000000E+00     0.00000000000000E+00     0.00000000000000E+00
   H       0.00000000000000E+00     0.00000000000000E+00     0.00000000000000E+00
   H       0.00000000000000E+00     0.00000000000000E+00     0.00000000000000E+00
   H       0.00000000000000E+00     0.00000000000000E+00     0.00000000000000E+00
   H       0.00000000000000E+00     0.00000000000000E+00     0.00000000000000E+00
   H       0.00000000000000E+00     0.00000000000000E+00     0.00000000000000E+00
   H       0.00000000000000E+00     0.00000000000000E+00     0.00000000000000E+00
   H       0.00000000000000E+00     0.00000000000000E+00     0.00000000000000E+00
 
   Forces acting on atoms (au):
   O      -0.13227982883417E+00     0.67837257851807E-01     0.62053731243916E-01
   O       0.10738873492764E+00     0.31621810973755E+00     0.16642027331732E+00
   O      -0.28613094245267E+00     0.23338546267327E+00     0.16744406773632E+00
   O       0.97861868886523E-01    -0.19305742332229E+00     0.81157932933834E+00
   O       0.12361145139236E+00     0.24899705399493E+00    -0.23962322194537E+00
   O      -0.29181953165068E+00    -0.71821717355918E-01     0.29261988877605E+00
   O      -0.20807788583833E+00    -0.22129474000241E+00    -0.33181788242879E+00
   O       0.19609546575993E+00     0.34920654859566E+00     0.52172457773063E-01
   O       0.12548752367213E+00     0.18109257523180E+00     0.41598293008706E+00
   O      -0.14163404849978E+00     0.58344524313038E-01    -0.59911507870166E-01
   O      -0.12208483856545E+00     0.22731328295864E+00     0.87049833634953E-01
   O      -0.41367406576752E+00     0.21146063679244E+00    -0.13530470357306E+00
   O      -0.42591260972526E-01     0.22800824499015E+00    -0.48545400364217E+00
   O       0.56094460038140E+00    -0.29761639386088E-01    -0.35137355855972E+00
   O      -0.41735771396104E-01    -0.18070403671980E+00    -0.55798450660992E+00
   O      -0.30759713950431E+00     0.94911940074286E-01    -0.15968493855020E+00
   O       0.15907189039094E+00    -0.24714700422111E+00     0.28952516943879E+00
   O      -0.42954487307608E-02    -0.11395379979199E+00     0.41122937042376E-01
   O       0.65882548894869E+00    -0.11059918399277E+00     0.27102519214897E+00
   O       0.19984122256473E+00    -0.58458734366418E+00    -0.62215806113640E-01
   O      -0.26832429536110E+00     0.89035359298283E-01     0.23185173769547E+00
   O       0.32643239866679E+00     0.93411502187262E+00     0.82113782484576E+00
   O       0.71047406928344E-01    -0.43029634454985E-01    -0.24760470258458E+00
   O       0.12139326447733E+00     0.22192466671785E+00     0.62692840242689E-01
   O      -0.41044889667076E+00     0.32232397223464E+00     0.10437018772606E+00
   O       0.59049134054522E+00    -0.29027850043933E+00     0.11945514176696E+01
   O       0.15195405366622E+00     0.35998661653315E+00    -0.11507089727723E+00
   O      -0.22836355087047E+00     0.11161980678236E+00    -0.13954523063734E+00
   O      -0.24099862731818E+00     0.24502531391964E+00     0.25664707344683E+00
   O       0.22840872003314E+00     0.43292618237601E+00     0.41712113852285E+00
   O       0.83290166713297E+00     0.30652834338334E+00     0.77490017116287E+00
   O       0.39597183055895E+00     0.93352786584483E-01     0.14720834256119E-01
   O      -0.23792753163229E+00     0.15569250031496E+00     0.81503419718976E-01
   O       0.37050008279176E-02     0.32810533334552E+00     0.20087252690404E-01
   O      -0.40902214405492E+00     0.15479594987470E+00     0.15378579622926E+00
   O       0.19405101339619E+00    -0.18719912076386E+00     0.76882489658056E+00
   O       0.83681741643917E-01     0.28470624263121E+00    -0.28126872158567E+00
   O      -0.32043865405741E+00    -0.24795189985754E-01     0.32278889774710E+00
   O      -0.21594345177114E+00    -0.97002711158872E-01    -0.27831998430730E+00
   O       0.13693845186027E+00     0.34004020850825E+00     0.26553152117764E+00
   O      -0.31765389651528E-01     0.30855219322238E-01     0.30700172502856E+00
   O      -0.29509711843023E+00    -0.23144032709926E-01    -0.88709333850875E-01
   O      -0.69313119630896E-01     0.30438999040611E+00     0.30528953432761E+00
   O      -0.46262144151986E+00     0.16069110690120E+00    -0.10588455959065E+00
   O      -0.53763079122274E-01     0.65425018223848E-01    -0.41872091474284E+00
   O       0.50836447623041E+00    -0.41271253578102E-01    -0.10760151913703E+00
   O       0.49644603997673E-01    -0.69229983762057E-01    -0.53526481998841E+00
   O      -0.26437121336146E+00     0.18150381184767E+00    -0.10662584956529E+00
   O       0.76805528525232E-01    -0.17938457224865E+00     0.11577755468398E+00
   O      -0.59797297693950E-01    -0.81036685859149E-01     0.23117421619172E-01
   O       0.61590990923400E+00    -0.21264725763568E+00     0.24435451903723E+00
   O       0.21672429503117E+00    -0.47077345496739E+00     0.14061146763414E-01
   O      -0.26101970124641E+00     0.28431532100491E-01     0.12432128444872E+00
   O       0.20752822161171E+00     0.98433272305134E+00     0.80052649245020E+00
   O       0.71823012086589E-01     0.17745701068508E-01    -0.51871155075404E+00
   O       0.12710718547828E+00     0.28464012939531E+00    -0.37428785025025E-01
   O      -0.29175186504363E+00     0.46859368896268E+00     0.17070663335979E-01
   O       0.84197156588779E+00    -0.23394067988836E+00     0.11644166062455E+01
   O       0.11534352031077E+00     0.28077953170283E+00     0.64103119541911E-01
   O      -0.12341843839750E+00     0.16002239135060E+00    -0.82688819162562E-01
   O      -0.31717837686851E+00     0.89824938238485E-01     0.33722051469740E+00
   O       0.23675797488919E+00     0.48059935477511E+00     0.30053697298986E+00
   O       0.83955130877007E+00     0.16342789499615E+00     0.76907146479591E+00
   O       0.34794464308673E+00     0.23910417276333E+00    -0.43314752610157E-01
   H       0.12726045904302E+00    -0.18966470796430E+00    -0.29487290176108E+00
   H      -0.86995864067756E-01    -0.15050896566859E+00     0.26986964517329E+00
   H      -0.34574099848223E+00     0.15923594493723E+00    -0.26846456462451E+00
   H      -0.25476904656355E+00    -0.23961093710232E+00     0.14705160713810E+00
   H       0.15913859335478E+00    -0.13103519917679E+00    -0.26682028868667E+00
   H       0.25674486397774E+00    -0.33273522874946E+00     0.11625463502821E+00
   H       0.22635823931647E+00     0.20270078867283E+00    -0.18459376430638E+00
   H       0.13870335032254E+00     0.46395242331987E+00    -0.70108473634680E-01
   H       0.45930627307220E-01    -0.37456170703787E+00    -0.71043178671296E-01
   H      -0.12251739628807E+00     0.36885905535732E-01     0.31814129387587E+00
   H       0.15655784564839E-01     0.24330124233957E+00     0.85700423668731E-01
   H       0.10771318299810E-01    -0.19027993440644E+00    -0.23277849786052E+00
   H      -0.97188921534527E-01     0.23676864424133E+00     0.27083117419265E+00
   H       0.29722843571152E+00    -0.12693968181065E+00    -0.21238577733691E+00
   H      -0.18152278832763E+00    -0.17956982504314E+00    -0.50630043264003E-01
   H      -0.11564400821178E+00    -0.24850773967037E+00    -0.16768118526337E+00
   H       0.36959139402427E+00     0.90435580026991E-01    -0.17906127689161E+00
   H       0.13370704418402E+00    -0.11431715256797E+00     0.12837004667204E+00
   H       0.13693524848271E+00     0.23200444629435E+00    -0.43443088105209E-01
   H       0.35401923836115E+00    -0.59402766887967E-01    -0.76246653291431E-01
   H      -0.17178848249363E+00    -0.18476172875041E+00    -0.19470804298749E+00
   H       0.29846350757190E+00    -0.18510591865992E+00    -0.22222772752796E+00
   H       0.93587889024645E-01     0.53928715050477E-01     0.29729774420159E+00
   H       0.14190752220192E+00    -0.23571419031310E+00     0.12641665948055E+00
   H      -0.19131953221186E+00     0.17287017413011E+00     0.30101424544119E+00
   H       0.11736291649950E-01    -0.35092579318951E+00    -0.16017340125275E+00
   H      -0.24038844955815E+00    -0.15330091183201E+00     0.21356710038474E-01
   H      -0.10163645345259E+00     0.30470756866917E+00     0.14189616789468E+00
   H       0.24408111524896E+00    -0.23275449814048E+00     0.89191195377661E-01
   H       0.21292986329791E+00     0.16002689701888E+00    -0.33121112994539E+00
   H       0.30858088868559E+00     0.13718509292577E+00    -0.42585190488493E-01
   H       0.26438963993780E+00     0.24836094770720E+00     0.15522734452433E+00
   H       0.14739625783891E+00    -0.16532105827912E+00    -0.36709075833527E+00
   H      -0.37228951500522E+00     0.87242297501518E-01     0.10732291215132E-01
   H       0.53557736581771E-01     0.28976834915970E+00    -0.63721486127864E-01
   H      -0.91363184039073E-01     0.37676995618141E+00    -0.15842758119909E+00
   H       0.37125336188503E+00     0.16459143928983E+00     0.26959648625334E+00
   H       0.11846833527203E+00     0.14759128500890E+00    -0.24550262777144E+00
   H       0.13415129562066E+00    -0.26927601733595E+00    -0.83409917431507E-02
   H       0.26998973919911E+00     0.14992078607242E+00     0.66172346141385E-01
   H       0.29827661939350E+00    -0.14005408433077E+00     0.19338425709447E+00
   H       0.66820821380700E-01    -0.45511856573788E+00    -0.25479953176355E+00
   H      -0.22215135454856E+00    -0.17326002022818E+00     0.20179185763732E+00
   H       0.17085913122272E+00     0.83590131505904E-01     0.18131948622674E+00
   H      -0.29233232494735E+00     0.58516474570964E-01    -0.11430758581009E+00
   H       0.10242610931852E+00    -0.30917360197718E+00    -0.12219953181111E-01
   H       0.34974459879539E+00    -0.74345282963284E-01     0.11229653207150E-01
   H       0.22667740481284E+00    -0.13102729745269E+00     0.14264110840638E+00
   H      -0.41761018007880E-01     0.13845706012675E+00    -0.52679577341168E+00
   H      -0.38145920346641E+00    -0.87894653629214E-01     0.18944532483603E+00
   H      -0.25929100983128E+00    -0.37767235605405E-01     0.21797318468036E+00
   H       0.13049185385013E-01    -0.30824680237913E+00    -0.16656378509616E+00
   H       0.26875375072489E-01    -0.12973189170524E+00     0.33648379725680E+00
   H       0.42812286059893E+00     0.72205474984996E-02    -0.18995077569206E+00
   H       0.15054754816462E+00    -0.18523762518605E+00     0.78359113615373E-01
   H       0.16540919911511E+00     0.95438902648179E-01    -0.30362107595806E+00
   H      -0.14891504965025E+00    -0.20723784012078E+00    -0.26553959106681E+00
   H      -0.22379412447885E+00    -0.25652337438234E+00     0.19546356100508E+00
   H       0.14911072195617E+00     0.18090923504435E-01    -0.33395908976370E+00
   H      -0.44290937285795E+00    -0.11010346836669E+00     0.29645026344866E+00
   H       0.26100934251008E-01     0.30749137087685E+00    -0.42915477684101E+00
   H       0.28403370035902E+00    -0.92634992443342E-01     0.24139705017831E+00
   H       0.48479629874542E-01    -0.15873418940287E+00    -0.98468972710386E-01
   H      -0.50188569433825E+00    -0.14194352687503E-01    -0.14243321923925E-01
   H       0.16635549008492E+00    -0.17191389334618E+00    -0.28050416996007E+00
   H      -0.75936240867404E-01    -0.17669093564949E+00     0.24482717088390E+00
   H      -0.31584060496411E+00     0.14435726650913E+00    -0.28068377959558E+00
   H      -0.27893132880736E+00    -0.26949035882489E+00     0.14363866181950E+00
   H       0.18206171546921E+00    -0.15857267009044E+00    -0.26156953451006E+00
   H       0.26089263549282E+00    -0.35861611235570E+00     0.12498612219263E+00
   H       0.20634198099901E+00     0.18270572412359E+00    -0.21026563428124E+00
   H       0.13296850646562E+00     0.45140599852808E+00    -0.77359800433515E-01
   H       0.62388345304682E-01    -0.37348562696685E+00    -0.47606824583428E-01
   H      -0.15137718953382E+00     0.59190954822887E-01     0.32315680478756E+00
   H       0.23513818767529E-01     0.23347403327084E+00     0.12314235374687E+00
   H       0.30778099638178E-01    -0.18569086349853E+00    -0.23514487005304E+00
   H      -0.81342787858930E-01     0.23407216287942E+00     0.27519758837089E+00
   H       0.25206689149859E+00    -0.11658080252959E+00    -0.22585398773162E+00
   H      -0.18590650155359E+00    -0.14659551226735E+00    -0.30735461481836E-01
   H      -0.92402400080601E-01    -0.24516689530780E+00    -0.19526593045045E+00
   H       0.37749135140520E+00     0.76333987255294E-01    -0.17406471783287E+00
   H       0.14729141197684E+00    -0.10738947008106E+00     0.15303537733949E+00
   H       0.17380415578310E+00     0.25557146204903E+00    -0.39608645231831E-01
   H       0.40814318871934E+00    -0.47217111293522E-01    -0.82344599371081E-01
   H      -0.18945708907184E+00    -0.19489688187957E+00    -0.26915133567849E+00
   H       0.32023378125108E+00    -0.19473121155350E+00    -0.24083996465826E+00
   H       0.89871547372815E-01     0.42076702822193E-01     0.33767577890456E+00
   H       0.15454190137948E+00    -0.21308859528831E+00     0.10985870629741E+00
   H      -0.19611336792520E+00     0.16083716334738E+00     0.26602429728177E+00
   H       0.25391551918964E-01    -0.36955341311627E+00    -0.14853049468341E+00
   H      -0.25280385694379E+00    -0.15873252163644E+00     0.36961219559811E-01
   H      -0.11863241242895E+00     0.31610501989074E+00     0.13092275907609E+00
   H       0.26545414442398E+00    -0.23002757527513E+00     0.92185493124191E-01
   H       0.22092627877630E+00     0.15003471441438E+00    -0.32284204576331E+00
   H       0.29377339728959E+00     0.14251039852584E+00    -0.23234464182771E-01
   H       0.25119569937840E+00     0.25011738450599E+00     0.18867117771604E+00
   H       0.16163545419175E+00    -0.15017128926318E+00    -0.37922940240241E+00
   H      -0.42348067797197E+00     0.91922854418222E-01     0.27289682702098E-01
   H       0.77952874217019E-01     0.32249283893614E+00    -0.63754632322984E-01
   H      -0.67015647396502E-01     0.37908925974320E+00    -0.15100825830100E+00
   H       0.36312147735529E+00     0.15737596933596E+00     0.25067695803154E+00
   H       0.10374082953091E+00     0.13599828508103E+00    -0.23177277649640E+00
   H       0.14970922355135E+00    -0.24242915106908E+00    -0.15748957981224E-01
   H       0.28138409781012E+00     0.14216298202455E+00     0.73866402042321E-01
   H       0.31978729184062E+00    -0.10497255264215E+00     0.20444483381723E+00
   H       0.66162829534479E-01    -0.47575218042509E+00    -0.29419103327068E+00
   H      -0.23077859589338E+00    -0.17652337199565E+00     0.19695249573360E+00
   H       0.16352140691323E+00     0.78769018644926E-01     0.20858012612938E+00
   H      -0.25719144012505E+00     0.43909725367785E-01    -0.83579505418278E-01
   H       0.86300341654625E-01    -0.31208342773512E+00     0.10742376390232E-01
   H       0.36876156376460E+00    -0.48374118451914E-01     0.69049850052816E-02
   H       0.25302799296182E+00    -0.15950027038022E+00     0.17492226395702E+00
   H      -0.22051243650051E-01     0.11275674606675E+00    -0.49897665276064E+00
   H      -0.38992261616310E+00    -0.91307273980252E-01     0.17507647243729E+00
   H      -0.24744212836224E+00    -0.59073325476439E-01     0.22871346488841E+00
   H       0.16387099224774E-01    -0.34158370683716E+00    -0.20135280139961E+00
   H       0.17686044184949E-01    -0.13539554061242E+00     0.32129846903357E+00
   H       0.40092316572062E+00     0.28747333609723E-01    -0.18811494420146E+00
   H       0.15783627720837E+00    -0.20100482419713E+00     0.86198382172394E-01
   H       0.16747444050376E+00     0.13801369525460E+00    -0.32870371925989E+00
   H      -0.14484254662988E+00    -0.20066764256259E+00    -0.22711247038253E+00
   H      -0.27453050439990E+00    -0.26428733873061E+00     0.19151580541868E+00
   H       0.15024749366471E+00     0.20530994918403E-01    -0.33605983916529E+00
   H      -0.42088466493417E+00    -0.11537110711549E+00     0.29182255414009E+00
   H       0.83961727510255E-02     0.27245178232095E+00    -0.39891268475393E+00
   H       0.29716436653418E+00    -0.81619921396162E-01     0.23655681808584E+00
   H       0.63239191851395E-01    -0.13796658372571E+00    -0.12259813802696E+00
   H      -0.53423778863633E+00    -0.34296226511488E-02    -0.19588265614162E-01
 


   Partial temperatures (for each ionic specie) 
   Species  Temp (K)   Mean Square Displacement (a.u.)
        1   0.00E+00     0.0000E+00
        2   0.00E+00     0.0000E+00
     10   40.633443489976983    0.0    0.00    -727.634262528979    -727.634262528979    -727.634262528979    -687.000819039001   0.0000   0.0000   0.0000   0.0000

   writing restart file (with schema): ./Pippo/h2o_50.save/
     restart      :      0.37s CPU      0.55s WALL (       1 calls)


   Averaged Physical Quantities
                      accumulated      this run
   ekinc         :      195.88011     195.88011 (AU)
   ekin          :      697.98649     697.98649 (AU)
   epot          :    -1127.34396   -1127.34396 (AU)
   total energy  :     -308.84439    -308.84439 (AU)
   temperature   :        0.00000       0.00000 (K )
   enthalpy      :     -308.84439    -308.84439 (AU)
   econs         :     -308.84439    -308.84439 (AU)
   pressure      :      481.53924     481.53924 (Gpa)
   volume        :    12973.77925   12973.77925 (AU)



     Called by MAIN_LOOP:
     initialize   :      9.24s CPU     12.74s WALL (       1 calls)
     main_loop    :     38.74s CPU     40.84s WALL (      10 calls)
     cpr_total    :     39.11s CPU     41.39s WALL (       1 calls)

     Called by INIT_RUN:

     Called by CPR:
     cpr_md       :     39.11s CPU     41.39s WALL (      10 calls)
     move_electro :     22.82s CPU     24.49s WALL (      10 calls)

     Called by move_electrons:
     rhoofr       :      2.49s CPU      3.12s WALL (      11 calls)
     vofrho       :     21.08s CPU     21.55s WALL (      11 calls)
     dforce       :      2.00s CPU      4.44s WALL (      88 calls)
     calphi       :      0.01s CPU      0.01s WALL (      11 calls)
     newd         :      0.00s CPU      0.00s WALL (      11 calls)
     nlfl         :      0.00s CPU      0.00s WALL (       2 calls)

     Called by ortho:
     ortho_iter   :      0.07s CPU      0.08s WALL (      11 calls)
     rsg          :      0.35s CPU      1.82s WALL (      11 calls)
     rhoset       :      0.02s CPU      0.03s WALL (      11 calls)
     sigset       :      0.02s CPU      0.02s WALL (      11 calls)
     tauset       :      0.02s CPU      0.02s WALL (      11 calls)
     ortho        :      0.49s CPU      1.99s WALL (      11 calls)
     updatc       :      0.02s CPU      0.02s WALL (      11 calls)

     Small boxes:

     Low-level routines:
     prefor       :      0.07s CPU      0.08s WALL (      11 calls)
     nlfq         :      0.02s CPU      0.03s WALL (       2 calls)
     nlsm1        :      2.03s CPU      1.86s WALL (      12 calls)
     nlsm2        :      0.02s CPU      0.03s WALL (       2 calls)
     fft          :      3.76s CPU      3.83s WALL (      89 calls)
     ffts         :      0.84s CPU      0.86s WALL (      22 calls)
     fftw         :      1.42s CPU      2.16s WALL (     264 calls)
                                        1.97s GPU  (     264 calls)
     betagx       :      0.18s CPU      0.19s WALL (       1 calls)
     qradx        :      0.00s CPU      0.00s WALL (       1 calls)
     gram         :      1.59s CPU      1.61s WALL (       1 calls)
     nlinit       :      0.42s CPU      0.42s WALL (       1 calls)
     init_dim     :      0.18s CPU      0.19s WALL (       1 calls)
     newnlinit    :      0.00s CPU      0.00s WALL (       1 calls)
     from_scratch :      8.61s CPU     12.05s WALL (       1 calls)
     strucf       :      0.25s CPU      0.26s WALL (       1 calls)
     calbec       :      2.03s CPU      1.86s WALL (      12 calls)
     exch_corr    :      6.87s CPU      7.01s WALL (      11 calls)
 
 
     CP           :     48.69s CPU     54.52s WALL

 
   This run was terminated on:  13: 8:22  14Jul2021            

=------------------------------------------------------------------------------=
   JOB DONE.
=------------------------------------------------------------------------------=
